%!PS-Adobe-3.0 EPSF-3.0
%%Creator: MATLAB, The MathWorks, Inc. Version 7.12.0.635 (R2011a). Operating System: Microsoft Windows 7.
%%Title: F:\code\vanetsim\entropy_loc.eps
%%CreationDate: 07/27/2012  16:55:00
%%DocumentNeededFonts: Helvetica-Bold
%%+ Helvetica
%%DocumentProcessColors: Cyan Magenta Yellow Black
%%LanguageLevel: 2
%%Pages: 1
%%BoundingBox:    87   262   507   578
%%EndComments

%%BeginProlog
% MathWorks dictionary
/MathWorks 160 dict begin
% definition operators
/bdef {bind def} bind def
/ldef {load def} bind def
/xdef {exch def} bdef
/xstore {exch store} bdef
% operator abbreviations
/c  /clip ldef
/cc /concat ldef
/cp /closepath ldef
/gr /grestore ldef
/gs /gsave ldef
/mt /moveto ldef
/np /newpath ldef
/cm /currentmatrix ldef
/sm /setmatrix ldef
/rm /rmoveto ldef
/rl /rlineto ldef
/s {show newpath} bdef
/sc {setcmykcolor} bdef
/sr /setrgbcolor ldef
/sg /setgray ldef
/w /setlinewidth ldef
/j /setlinejoin ldef
/cap /setlinecap ldef
/rc {rectclip} bdef
/rf {rectfill} bdef
% page state control
/pgsv () def
/bpage {/pgsv save def} bdef
/epage {pgsv restore} bdef
/bplot /gsave ldef
/eplot {stroke grestore} bdef
% orientation switch
/portraitMode 0 def /landscapeMode 1 def /rotateMode 2 def
% coordinate system mappings
/dpi2point 0 def
% font control
/FontSize 0 def
/FMS {/FontSize xstore findfont [FontSize 0 0 FontSize neg 0 0]
  makefont setfont} bdef
/ISOLatin1Encoding where {pop /WindowsLatin1Encoding 256 array bdef
ISOLatin1Encoding WindowsLatin1Encoding copy pop
/.notdef/.notdef/quotesinglbase/florin/quotedblbase/ellipsis/dagger
/daggerdbl/circumflex/perthousand/Scaron/guilsinglleft/OE/.notdef/.notdef
/.notdef/.notdef/quoteleft/quoteright/quotedblleft/quotedblright/bullet
/endash/emdash/tilde/trademark/scaron/guilsinglright/oe/.notdef/.notdef
/Ydieresis WindowsLatin1Encoding 128 32 getinterval astore pop}
{/WindowsLatin1Encoding StandardEncoding bdef} ifelse
/reencode {exch dup where {pop load} {pop StandardEncoding} ifelse
  exch dup 3 1 roll findfont dup length dict begin
  { 1 index /FID ne {def}{pop pop} ifelse } forall
  /Encoding exch def currentdict end definefont pop} bdef
/isroman {findfont /CharStrings get /Agrave known} bdef
/FMSR {3 1 roll 1 index dup isroman {reencode} {pop pop} ifelse
  exch FMS} bdef
/csm {1 dpi2point div -1 dpi2point div scale neg translate
 dup landscapeMode eq {pop -90 rotate}
  {rotateMode eq {90 rotate} if} ifelse} bdef
% line types: solid, dotted, dashed, dotdash
/SO { [] 0 setdash } bdef
/DO { [.5 dpi2point mul 4 dpi2point mul] 0 setdash } bdef
/DA { [6 dpi2point mul] 0 setdash } bdef
/DD { [.5 dpi2point mul 4 dpi2point mul 6 dpi2point mul 4
  dpi2point mul] 0 setdash } bdef
% macros for lines and objects
/L {lineto stroke} bdef
/MP {3 1 roll moveto 1 sub {rlineto} repeat} bdef
/AP {{rlineto} repeat} bdef
/PDlw -1 def
/W {/PDlw currentlinewidth def setlinewidth} def
/PP {closepath eofill} bdef
/DP {closepath stroke} bdef
/MR {4 -2 roll moveto dup  0 exch rlineto exch 0 rlineto
  neg 0 exch rlineto closepath} bdef
/FR {MR stroke} bdef
/PR {MR fill} bdef
/L1i {{currentfile picstr readhexstring pop} image} bdef
/tMatrix matrix def
/MakeOval {newpath tMatrix currentmatrix pop translate scale
0 0 1 0 360 arc tMatrix setmatrix} bdef
/FO {MakeOval stroke} bdef
/PO {MakeOval fill} bdef
/PD {currentlinewidth 2 div 0 360 arc fill
   PDlw -1 eq not {PDlw w /PDlw -1 def} if} def
/FA {newpath tMatrix currentmatrix pop translate scale
  0 0 1 5 -2 roll arc tMatrix setmatrix stroke} bdef
/PA {newpath tMatrix currentmatrix pop	translate 0 0 moveto scale
  0 0 1 5 -2 roll arc closepath tMatrix setmatrix fill} bdef
/FAn {newpath tMatrix currentmatrix pop translate scale
  0 0 1 5 -2 roll arcn tMatrix setmatrix stroke} bdef
/PAn {newpath tMatrix currentmatrix pop translate 0 0 moveto scale
  0 0 1 5 -2 roll arcn closepath tMatrix setmatrix fill} bdef
/vradius 0 def /hradius 0 def /lry 0 def
/lrx 0 def /uly 0 def /ulx 0 def /rad 0 def
/MRR {/vradius xdef /hradius xdef /lry xdef /lrx xdef /uly xdef
  /ulx xdef newpath tMatrix currentmatrix pop ulx hradius add uly
  vradius add translate hradius vradius scale 0 0 1 180 270 arc 
  tMatrix setmatrix lrx hradius sub uly vradius add translate
  hradius vradius scale 0 0 1 270 360 arc tMatrix setmatrix
  lrx hradius sub lry vradius sub translate hradius vradius scale
  0 0 1 0 90 arc tMatrix setmatrix ulx hradius add lry vradius sub
  translate hradius vradius scale 0 0 1 90 180 arc tMatrix setmatrix
  closepath} bdef
/FRR {MRR stroke } bdef
/PRR {MRR fill } bdef
/MlrRR {/lry xdef /lrx xdef /uly xdef /ulx xdef /rad lry uly sub 2 div def
  newpath tMatrix currentmatrix pop ulx rad add uly rad add translate
  rad rad scale 0 0 1 90 270 arc tMatrix setmatrix lrx rad sub lry rad
  sub translate rad rad scale 0 0 1 270 90 arc tMatrix setmatrix
  closepath} bdef
/FlrRR {MlrRR stroke } bdef
/PlrRR {MlrRR fill } bdef
/MtbRR {/lry xdef /lrx xdef /uly xdef /ulx xdef /rad lrx ulx sub 2 div def
  newpath tMatrix currentmatrix pop ulx rad add uly rad add translate
  rad rad scale 0 0 1 180 360 arc tMatrix setmatrix lrx rad sub lry rad
  sub translate rad rad scale 0 0 1 0 180 arc tMatrix setmatrix
  closepath} bdef
/FtbRR {MtbRR stroke } bdef
/PtbRR {MtbRR fill } bdef
/stri 6 array def /dtri 6 array def
/smat 6 array def /dmat 6 array def
/tmat1 6 array def /tmat2 6 array def /dif 3 array def
/asub {/ind2 exch def /ind1 exch def dup dup
  ind1 get exch ind2 get sub exch } bdef
/tri_to_matrix {
  2 0 asub 3 1 asub 4 0 asub 5 1 asub
  dup 0 get exch 1 get 7 -1 roll astore } bdef
/compute_transform {
  dmat dtri tri_to_matrix tmat1 invertmatrix 
  smat stri tri_to_matrix tmat2 concatmatrix } bdef
/ds {stri astore pop} bdef
/dt {dtri astore pop} bdef
/db {2 copy /cols xdef /rows xdef mul dup 3 mul string
  currentfile 
  3 index 0 eq {/ASCIIHexDecode filter}
  {/ASCII85Decode filter 3 index 2 eq {/RunLengthDecode filter} if }
  ifelse exch readstring pop
  dup 0 3 index getinterval /rbmap xdef
  dup 2 index dup getinterval /gbmap xdef
  1 index dup 2 mul exch getinterval /bbmap xdef pop pop}bdef
/it {gs np dtri aload pop moveto lineto lineto cp c
  cols rows 8 compute_transform 
  rbmap gbmap bbmap true 3 colorimage gr}bdef
/il {newpath moveto lineto stroke}bdef
currentdict end def
%%EndProlog

%%BeginSetup
MathWorks begin

0 cap

end
%%EndSetup

%%Page: 1 1
%%BeginPageSetup
%%PageBoundingBox:    87   262   507   578
MathWorks begin
bpage
%%EndPageSetup

%%BeginObject: obj1
bplot

/dpi2point 12 def
portraitMode 1044 6936 csm

    0     0  5045  3782 rc
86 dict begin %Colortable dictionary
/c0 { 0.000000 0.000000 0.000000 sr} bdef
/c1 { 1.000000 1.000000 1.000000 sr} bdef
/c2 { 0.900000 0.000000 0.000000 sr} bdef
/c3 { 0.000000 0.820000 0.000000 sr} bdef
/c4 { 0.000000 0.000000 0.800000 sr} bdef
/c5 { 0.910000 0.820000 0.320000 sr} bdef
/c6 { 1.000000 0.260000 0.820000 sr} bdef
/c7 { 0.000000 0.820000 0.820000 sr} bdef
c0
1 j
1 sg
   0    0 5046 3783 rf
24 w
0 3056 3910 0 0 -3056 656 3340 4 MP
PP
-3910 0 0 3056 3910 0 0 -3056 656 3340 5 MP stroke
16 w
DO
0 sg
 764 3340 mt  764  284 L
 764  284 mt  764  284 L
1307 3340 mt 1307  284 L
1307  284 mt 1307  284 L
1850 3340 mt 1850  284 L
1850  284 mt 1850  284 L
2393 3340 mt 2393  284 L
2393  284 mt 2393  284 L
2936 3340 mt 2936  284 L
2936  284 mt 2936  284 L
3479 3340 mt 3479  284 L
3479  284 mt 3479  284 L
4022 3340 mt 4022  284 L
4022  284 mt 4022  284 L
4566 3340 mt 4566  284 L
4566  284 mt 4566  284 L
 656 3340 mt 4566 3340 L
4566 3340 mt 4566 3340 L
 656 2728 mt 4566 2728 L
4566 2728 mt 4566 2728 L
 656 2117 mt 4566 2117 L
4566 2117 mt 4566 2117 L
 656 1506 mt 4566 1506 L
4566 1506 mt 4566 1506 L
 656  895 mt 4566  895 L
4566  895 mt 4566  895 L
 656  284 mt 4566  284 L
4566  284 mt 4566  284 L
SO
24 w
 656  284 mt 4566  284 L
 656 3340 mt 4566 3340 L
4566 3340 mt 4566  284 L
 656 3340 mt  656  284 L
 656 3340 mt 4566 3340 L
 656 3340 mt  656  284 L
 764 3340 mt  764 3300 L
 764  284 mt  764  323 L
%%IncludeResource: font Helvetica
/Helvetica /WindowsLatin1Encoding 180 FMSR

 714 3541 mt 
(0) s
1307 3340 mt 1307 3300 L
1307  284 mt 1307  323 L
1257 3541 mt 
(1) s
1850 3340 mt 1850 3300 L
1850  284 mt 1850  323 L
1800 3541 mt 
(2) s
2393 3340 mt 2393 3300 L
2393  284 mt 2393  323 L
2343 3541 mt 
(3) s
2936 3340 mt 2936 3300 L
2936  284 mt 2936  323 L
2886 3541 mt 
(4) s
3479 3340 mt 3479 3300 L
3479  284 mt 3479  323 L
3429 3541 mt 
(5) s
4022 3340 mt 4022 3300 L
4022  284 mt 4022  323 L
3972 3541 mt 
(6) s
4566 3340 mt 4566 3300 L
4566  284 mt 4566  323 L
4516 3541 mt 
(7) s
 656 3340 mt  695 3340 L
4566 3340 mt 4526 3340 L
 521 3406 mt 
(0) s
 656 2728 mt  695 2728 L
4566 2728 mt 4526 2728 L
 371 2794 mt 
(0.2) s
 656 2117 mt  695 2117 L
4566 2117 mt 4526 2117 L
 371 2183 mt 
(0.4) s
 656 1506 mt  695 1506 L
4566 1506 mt 4526 1506 L
 371 1572 mt 
(0.6) s
 656  895 mt  695  895 L
4566  895 mt 4526  895 L
 371  961 mt 
(0.8) s
 656  284 mt  695  284 L
4566  284 mt 4526  284 L
 521  350 mt 
(1) s
 656  284 mt 4566  284 L
 656 3340 mt 4566 3340 L
4566 3340 mt 4566  284 L
 656 3340 mt  656  284 L
gs 656 284 3911 3057 rc
/c8 { 0.000000 0.000000 1.000000 sr} bdef
c8
0 -3 11 -3 0 -3 10 -3 0 -9 11 -3 0 -12 4 -6 
4 -6 3 -3 0 -4 4 -3 0 -18 5 -9 2 -3 0 -6 
4 -9 0 -7 4 -3 0 -6 2 -3 0 -9 4 -6 0 -3 
5 -3 0 -3 2 -3 4 -3 0 -6 4 -3 0 -4 1 -6 
0 -3 2 -3 0 -6 4 -3 4 -3 3 -3 0 -3 4 -3 
4 -3 0 -3 2 -3 4 -3 5 -3 2 -3 0 -4 8 -3 
1 -3 0 -3 11 -3 3 -3 3 -3 4 -3 0 -3 4 -3 
9 -3 2 -3 0 -3 4 -3 1 -3 6 -3 2 -3 9 -3 
1 -4 1 -3 2 -3 5 -3 2 -3 0 -3 3 -3 3 -3 
2 -3 0 -12 2 -3 9 -3 0 -3 2 -3 1 -3 2 -4 
6 -3 0 -6 2 -3 1 -3 1 -3 2 -3 7 -3 2 -3 
2 -3 2 -3 17 -3 1 -3 0 -3 4 -3 0 -6 2 -4 
0 -6 2 -3 1 -3 1 -3 0 -3 1 -3 4 -3 6 -3 
0 -3 6 -3 1 -3 1 -3 5 -3 6 -3 2 -3 1 -4 
0 -3 5 -3 5 -3 0 -3 2 -3 1 -3 2 -3 2 -3 
2 -3 4 -3 3 -3 3 -3 0 -3 2 -3 14 -3 7 -3 
0 -3 3 -4 1 -3 0 -3 1 -3 0 -3 1 -3 2 -3 
2 -3 10 -3 4 -3 7 -3 6 -3 1 -3 1 -3 0 -3 
3 -3 5 -3 9 -3 2 -4 1 -3 6 -3 14 -3 8 -3 
1 -3 0 -3 2 -3 7 -3 1 -3 9 -3 4 -3 3 -3 
4 -3 0 -3 2 -3 1 -3 0 -3 2 -4 2 -3 1 -3 
1 -3 5 -3 2 -3 3 -3 1 -3 2 -3 4 -3 1 -3 
4 -3 1 -3 7 -3 0 -3 3 -3 1 -3 1 -3 8 -4 
0 -3 18 -3 9 -3 0 -3 1 -3 2 -3 0 -3 4 -3 
0 -3 2 -3 2 -3 0 -3 2 -3 6 -3 3 -3 4 -3 
14 -3 0 -4 6 -3 13 -3 9 -3 2 -3 8 -3 0 -3 
3 -3 1 -3 9 -3 10 -3 4 -3 7 -3 1 -3 4 -3 
9 -3 0 -3 2 -3 3 -4 2 -3 5 -3 4 -3 3 -3 
5 -3 0 -3 11 -3 1 -3 5 -3 10 -3 1 -3 2 -3 
3 -3 3 -3 12 -3 5 -3 2 -4 0 -3 1 -3 6 -3 
2 -3 0 -3 1 -3 2 -3 9 -3 1 -3 2 -3 1 -3 
3 -3 12 -3 1 -3 1 -3 5 -3 2 -3 2 -4 7 -3 
0 -3 1 -3 1 -3 8 -3 7 -3 9 -3 2 -3 0 -3 
10 -3 4 -3 1 -3 7 -3 1 -3 2 -3 3 -3 5 -3 
15 -4 5 -3 7 -3 8 -3 7 -3 1 -3 3 -3 0 -3 
9 -3 5 -3 3 -3 2 -3 1 -3 0 -3 4 -3 4 -3 
2 -3 7 -3 2 -4 5 -3 0 -6 17 -3 0 -6 10 -3 
7 -3 5 -3 4 -3 3357 1298 300 MP stroke
0 -3 3 -3 6 -3 4 -3 1 -3 4 -3 2 -3 2 -4 
7 -3 10 -3 7 -3 0 -3 2 -3 4 -3 4 -3 5 -3 
5 -3 1 -3 4 -3 2 -3 6 -3 10 -3 3 -3 2 -3 
2 -3 0 -4 6 -3 5 -3 1 -3 12 -3 7 -3 1 -3 
4 -3 16 -3 0 -3 6 -3 1 -3 0 -3 4 -3 2 -3 
5 -3 2 -3 3 -3 4 -4 0 -3 5 -3 0 -3 2 -3 
6 -3 0 -3 2 -3 6 -3 10 -3 6 -3 19 -3 0 -6 
3 -3 0 -3 3 -3 1 -4 4 -3 11 -3 15 -3 7 -3 
0 -3 4 -3 13 -3 4 -3 2 -3 0 -3 3 -3 4 -3 
23 -3 1 -3 1 -3 1 -3 3 -3 2 -4 0 -6 6 -3 
8 -3 3 -3 6 -3 3 -3 2 -3 2 -3 12 -3 1 -3 
1 -3 2 -3 0 -3 5 -3 1 -3 10 -3 16 -4 5 -3 
9 -3 0 -3 5 -3 2 -3 3 -3 4 -3 6 -3 7 -3 
1 -3 1 -3 12 -3 1 -3 12 -3 1 -3 3 -3 0 -3 
1 -4 4 -3 1 -3 12 -3 1 -3 1 -3 1 -3 0 -3 
13 -3 3 -3 7 -3 3 -3 9 -3 15 -3 7 -3 1 -3 
6 -3 8 -3 2 -4 3 -3 7 -3 2 -3 0 -3 2 -3 
24 -3 10 -3 9 -3 0 -3 5 -3 1 -3 6 -3 6 -3 
3 -3 4 -6 2 -3 1 -4 0 -3 2 -3 3 -3 3 -3 
3 -3 2 -3 7 -3 2 -3 2 -3 5 -3 4 -3 2 -3 
9 -3 14 -3 2 -3 5 -3 0 -3 3 -4 1 -3 13 -3 
1 -3 5 -3 2 -3 6 -3 0 -3 2 -3 7 -3 1 -3 
1 -3 1 -3 5 -3 1 -3 4 -3 2 -3 1 -4 1 -3 
1 -3 1 -3 8 -3 10 -3 0 -3 2 -3 5 -3 5 -3 
0 -3 1 -3 3 -3 3 -3 5 -3 4 -3 6 -3 2 -3 
2 -4 2 -3 1 -3 0 -3 3 -3 1 -3 6 -3 4 -3 
3 -3 4 -3 5 -3 4 -3 6 -3 0 -3 9 -3 13 -3 
1 -3 3 -3 4 -4 2 -3 4 -3 5 -3 7 -3 2 -3 
0 -3 1 -3 0 -3 8 -3 16 -3 2 -3 2 -3 0 -3 
3 -3 2 -3 4 -3 6 -3 5 -4 4 -3 1 -3 4 -3 
4 -3 1 -3 0 -3 1 -3 3 -3 3 -3 1 -3 1 -3 
1 -3 1 -3 10 -3 3 -3 1 -3 11 -3 2 -4 1 -3 
2 -3 0 -6 1 -3 0 -3 2 -3 0 -3 4 -3 3 -3 
4 -3 1 -3 2 -3 3 -3 0 -3 1 -3 0 -7 2 -3 
2 -3 14 -3 0 -3 2 -3 2 -3 6 -3 5 -3 6 -3 
0 -3 4 -3 1 -3 3 -3 4 -3 2 -3 10 -3 1 -3 
1 -4 3 -3 0 -3 1 -3 7 -3 1 -3 3 -3 2 -3 
2 -3 1 -3 4 -3 2208 2227 300 MP stroke
5 -3 1 -3 3 -3 6 -3 2 -3 2 -3 1 -4 3 -3 
1 -3 2 -6 3 -3 0 -6 2 -3 2 -3 5 -3 2 -3 
1 -3 4 -3 19 -3 0 -3 2 -3 2 -3 1 -4 2 -3 
7 -3 3 -3 6 -3 0 -3 4 -3 6 -3 0 -3 2 -3 
6 -3 3 -3 1 -3 5 -3 2 -3 2 -3 8 -3 2 -3 
0 -7 1 -3 1 -3 3 -3 1 -3 4 -3 2 -3 1 -3 
3 -3 2 -3 2 -3 3 -3 1 -3 2 -3 0 -3 1 -3 
4 -3 3 -4 0 -3 8 -3 6 -3 0 -6 2 -3 4 -3 
0 -3 10 -3 14 -3 0 -3 1 -3 0 -3 3 -3 1 -3 
12 -3 1 -3 0 -4 1 -3 5 -3 2 -3 0 -3 8 -3 
5 -3 2 -3 1 -3 3 -3 5 -3 3 -3 0 -3 2 -3 
2 -3 0 -3 4 -3 2 -3 0 -4 1 -3 3 -3 6 -3 
0 -3 7 -3 3 -3 8 -3 4 -3 1 -3 0 -3 1 -3 
2 -3 2 -3 4 -3 1 -3 0 -3 6 -3 4 -4 3 -3 
0 -3 9 -3 6 -3 4 -3 3 -3 6 -3 3 -3 1 -3 
4 -3 0 -3 1 -3 0 -3 6 -3 5 -3 3 -3 7 -4 
1 -3 0 -6 4 -3 1 -3 3 -3 6 -3 4 -3 1 -3 
9 -3 6 -3 0 -3 1 -3 7 -3 1 -3 0 -3 2 -3 
0 -4 1 -3 0 -3 4 -3 0 -3 3 -3 1 -3 8 -3 
2 -3 1 -3 0 -3 7 -3 2 -3 1 -3 0 -6 1 -3 
1 -3 1 -4 6 -3 5 -3 1 -3 10 -3 2 -3 2 -3 
1 -3 3 -3 13 -3 1 -3 5 -3 2 -3 6 -3 3 -3 
5 -3 5 -3 3 -3 6 -4 0 -3 6 -3 3 -3 0 -6 
14 -3 2 -3 1 -3 22 -3 0 -3 3 -3 8 -3 0 -3 
2 -3 2 -3 1 -3 1 -3 1 -4 0 -3 5 -3 5 -3 
5 -3 8 -3 1 -3 13 -6 6 -3 1 -3 2 -3 3 -3 
5 -3 3 -3 0 -6 4 -3 4 -4 9 -3 4 -3 9 -3 
0 -6 5 -3 4 -3 2 -3 1 -3 1 -3 3 -3 0 -3 
2 -3 0 -3 2 -3 0 -10 1 -3 1 -6 5 -3 1 -3 
8 -3 7 -3 14 -3 0 -3 4 -3 6 -3 2 -3 7 -3 
8 -3 1 -3 6 -3 2 -4 2 -3 3 -3 4 -3 3 -3 
5 -3 11 -3 3 -3 3 -3 2 -3 8 -3 1 -3 3 -3 
1 -3 3 -3 0 -3 2 -3 2 -3 3 -4 3 -3 0 -3 
6 -3 4 -3 4 -3 21 -3 21 -12 5 -6 5 -3 0 -3 
4 -3 8 -3 2 -3 3 -4 6 -3 9 -3 0 -3 4 -3 
2 -3 7 -3 15 -3 10 -3 3 -3 24 -3 18 -6 19 -3 
6 -3 12 -3 14 -3 25 -3 12 -4 34 -3 9 -3 23 -6 
0 -3 43 -6 11 -3 970 3202 300 MP stroke
32 -6 44 -6 43 -3 0 -123 851 3340 5 MP stroke
DA
/c9 { 1.000000 0.000000 0.000000 sr} bdef
c9
64 -3 68 -3 73 -3 0 -3 135 -3 13 -3 3 -3 4 -3 
55 -3 18 -6 11 -3 32 -3 81 -3 28 -3 6 -3 9 -3 
26 -4 8 -3 1 -3 4 -3 3 -3 1 -3 15 -3 6 -3 
13 -3 2 -3 1 -3 4 -3 0 -3 2 -6 14 -6 2 -3 
19 -4 3 -3 0 -3 3 -3 1 -3 36 -3 14 -3 3 -3 
0 -3 9 -3 15 -3 7 -3 24 -3 1 -3 1 -3 3 -3 
6 -3 1 -3 16 -4 2 -3 4 -3 4 -3 28 -3 2 -3 
1 -3 0 -3 1 -3 0 -3 6 -3 1 -3 2 -3 3 -3 
8 -3 5 -6 0 -3 2 -4 3 -3 9 -3 3 -3 2 -3 
2 -6 5 -3 2 -3 27 -3 10 -3 6 -3 6 -3 2 -3 
0 -3 1 -3 0 -3 7 -3 5 -4 3 -3 0 -3 6 -3 
5 -6 2 -3 8 -3 0 -3 4 -3 13 -3 5 -3 3 -3 
2 -3 6 -3 6 -6 1 -3 1 -4 2 -3 3 -3 3 -3 
0 -3 1 -3 9 -3 0 -3 6 -3 4 -3 0 -3 6 -3 
0 -3 1 -3 1 -3 0 -3 1 -3 0 -7 5 -3 3 -3 
0 -3 2 -3 2 -3 6 -3 0 -3 7 -3 8 -3 0 -3 
1 -3 17 -3 3 -3 1 -3 1 -3 9 -3 6 -4 0 -3 
2 -3 1 -3 2 -3 1 -3 0 -3 5 -3 0 -3 4 -3 
1 -3 0 -3 2 -3 2 -3 4 -3 0 -3 4 -3 2 -3 
0 -4 6 -3 1 -3 1 -6 0 -3 4 -3 3 -3 5 -3 
3 -3 1 -3 0 -3 5 -6 0 -3 2 -3 4 -3 0 -3 
2 -4 3 -3 0 -6 3 -3 6 -3 0 -3 1 -3 0 -3 
9 -3 9 -3 2 -3 3 -3 5 -3 0 -3 2 -3 1 -3 
2 -3 3 -4 5 -3 0 -3 1 -3 1 -3 1 -3 0 -3 
2 -3 1 -3 0 -3 1 -3 4 -3 2 -3 0 -9 5 -3 
3 -3 1 -7 2 -3 1 -3 4 -3 0 -3 4 -3 2 -3 
0 -6 1 -3 1 -3 2 -3 1 -3 1 -3 0 -6 1 -3 
4 -4 1 -3 2 -3 2 -3 5 -3 0 -3 1 -3 2 -3 
1 -3 3 -3 2 -3 5 -3 0 -6 1 -3 1 -3 2 -3 
8 -3 5 -4 3 -3 1 -3 1 -3 2 -3 4 -3 4 -3 
1 -3 1 -3 0 -3 3 -3 1 -3 0 -3 1 -3 1 -3 
0 -3 2 -3 1 -4 1 -3 0 -3 4 -3 1 -3 2 -3 
1 -3 1 -3 0 -6 3 -3 3 -3 1 -3 0 -3 3 -3 
3 -3 0 -6 1 -4 0 -3 2 -3 1 -3 1 -3 3 -3 
2 -3 0 -6 1 -3 1 -3 1 -3 3 -3 2 -3 0 -3 
2 -3 0 -3 3 -3 0 -4 2 -3 3 -3 0 -3 2 -3 
1 -3 0 -3 3 -3 0 -6 1 -3 0 -6 4 -3 2 -3 
3 -3 1 -3 0 -3 1093 1264 300 MP stroke
2 -4 0 -3 2 -3 0 -3 2 -3 0 -6 1 -3 0 -6 
1 -3 1 -3 0 -3 2 -3 0 -6 1 -3 1 -3 1 -4 
1 -3 0 -3 2 -3 0 -3 1 -3 1 -3 1 -3 0 -3 
3 -3 5 -3 2 -3 0 -3 4 -6 0 -3 2 -3 0 -7 
1 -3 3 -3 1 -3 1 -3 2 -3 1 -3 0 -3 1 -6 
0 -3 5 -3 0 -3 2 -3 0 -3 1 -3 1 -3 1 -3 
2 -4 0 -3 1 -3 2 -3 0 -3 1 -3 0 -3 5 -6 
3 -3 1 -3 1 -3 1 -3 1 -3 0 -3 2 -6 1 -4 
1 -3 1 -3 0 -6 4 -3 0 -6 1 -3 1 -3 0 -3 
1 -3 0 -3 1 -3 0 -6 2 -3 0 -3 1 -4 2 -3 
0 -3 3 -3 2 -3 1 -3 0 -9 2 -3 0 -3 1 -3 
3 -3 0 -6 4 -3 0 -3 1 -3 0 -7 3 -3 0 -3 
2 -3 0 -3 1 -3 0 -9 2 -3 0 -3 1 -3 2 -3 
1 -3 1 -3 1 -3 1 -3 3 -4 3 -3 0 -3 2 -3 
0 -12 1 -3 6 -3 0 -3 1 -3 1 -3 0 -3 1 -3 
1 -3 3 -3 2 -3 0 -4 3 -3 0 -6 1 -3 0 -6 
5 -3 1 -3 1 -3 1 -3 0 -3 1 -3 0 -9 1 -3 
2 -3 1 -4 0 -6 1 -3 0 -3 1 -3 2 -3 2 -3 
0 -3 1 -3 0 -6 1 -3 2 -3 0 -9 1 -7 1 -3 
1 -3 0 -3 1 -3 0 -3 1 -3 0 -3 1 -3 1 -3 
1 -3 1 -3 1 -3 1 -3 0 -6 1 -3 0 -4 1 -3 
1 -3 0 -9 3 -3 0 -9 1 -3 0 -6 1 -6 3 -3 
1 -3 0 -10 1 -3 0 -3 2 -3 0 -6 1 -3 1 -3 
1 -3 0 -3 1 -3 1 -3 0 -3 1 -3 0 -6 1 -3 
0 -4 1 -3 1 -3 0 -3 1 -3 1 -3 1 -3 3 -3 
1 -3 2 -3 0 -3 2 -3 0 -3 2 -3 0 -6 1 -6 
0 -4 2 -3 0 -6 2 -3 2 -3 0 -3 1 -3 0 -3 
1 -3 0 -9 1 -3 1 -6 0 -3 1 -3 0 -4 2 -6 
1 -3 1 -3 2 -3 0 -3 2 -3 0 -3 1 -3 0 -6 
1 -3 0 -15 2 -4 2 -3 0 -9 1 -3 1 -3 0 -3 
1 -3 3 -6 1 -3 0 -3 1 -3 2 -3 3 -3 1 -3 
1 -4 0 -6 1 -3 0 -3 1 -3 0 -21 1 -3 0 -3 
1 -3 0 -3 1 -3 2 -4 0 -12 3 -3 1 -3 0 -6 
1 -3 1 -3 0 -6 4 -3 0 -9 1 -7 0 -3 1 -3 
3 -3 0 -6 2 -6 1 -6 0 -3 1 -3 1 -3 1 -3 
0 -6 1 -6 0 -7 2 -3 1 -6 1 -3 1 -9 1 -3 
0 -3 2 -3 0 -3 2 -15 0 -19 4 -6 0 -3 2 -6 
5 -6 0 -9 4 -16 775 2475 300 MP stroke
0 -27 11 -31 0 -807 764 3340 4 MP stroke
SO
0 sg
279 -3 34 -3 44 -3 2 -3 39 -3 104 -3 6 -3 0 -3 
5 -6 58 -3 54 -3 78 -3 43 -6 44 -3 2 -3 11 -4 
16 -3 25 -3 3 -3 0 -3 21 -3 2 -3 8 -3 17 -3 
3 -3 4 -3 19 -3 11 -3 4 -3 1 -3 3 -3 2 -3 
16 -3 23 -4 16 -3 21 -3 7 -3 0 -3 3 -3 5 -3 
4 -3 2 -3 2 -3 1 -3 0 -3 19 -3 2 -3 1 -3 
9 -3 1 -3 0 -7 4 -3 4 -3 1 -3 0 -3 2 -3 
3 -3 5 -3 10 -3 13 -3 9 -3 0 -3 5 -3 3 -3 
3 -3 0 -6 4 -3 3 -4 2 -3 6 -3 5 -3 1 -3 
0 -3 4 -3 4 -3 0 -3 1 -3 8 -3 1 -3 2 -3 
0 -6 2 -3 2 -3 1 -3 0 -4 3 -3 5 -3 5 -3 
0 -3 1 -3 2 -3 0 -3 2 -3 3 -3 1 -3 1 -3 
1 -3 3 -3 3 -3 3 -3 3 -3 1 -3 5 -4 5 -3 
2 -3 0 -3 1 -3 3 -3 3 -3 0 -3 1 -3 0 -3 
1 -3 1 -3 0 -3 5 -3 3 -3 1 -3 1 -3 6 -3 
4 -4 2 -9 1 -3 1 -3 5 -3 0 -3 3 -3 0 -3 
7 -3 1 -3 4 -3 0 -3 2 -3 2 -3 0 -3 1 -7 
2 -3 1 -3 1 -3 4 -3 2 -6 2 -3 0 -3 2 -3 
1 -3 0 -3 6 -3 5 -3 0 -6 1 -7 2 -3 0 -6 
2 -3 0 -6 2 -3 3 -3 1 -3 11 -3 2 -3 2 -3 
1 -3 1 -3 3 -3 1 -3 1 -3 1 -4 0 -6 7 -3 
1 -3 0 -3 2 -3 0 -9 1 -3 2 -3 1 -3 1 -3 
2 -3 0 -3 3 -3 3 -3 5 -4 1 -3 2 -3 2 -3 
2 -3 0 -3 1 -3 0 -3 3 -3 1 -3 1 -3 4 -3 
0 -3 3 -3 1 -3 3 -9 2 -4 5 -3 5 -3 0 -3 
2 -3 0 -6 1 -3 0 -3 3 -3 2 -3 4 -3 4 -3 
1 -3 0 -3 2 -3 1 -3 2 -3 4 -4 0 -15 1 -3 
2 -3 3 -3 4 -3 0 -6 1 -3 0 -3 5 -3 4 -3 
2 -3 1 -3 3 -4 2 -3 0 -3 1 -3 1 -3 1 -3 
4 -3 1 -3 1 -3 1 -3 1 -3 0 -3 3 -3 0 -6 
1 -3 1 -3 0 -10 2 -3 0 -3 2 -3 0 -9 3 -3 
1 -3 2 -3 1 -3 0 -3 2 -3 0 -3 1 -3 1 -3 
0 -7 3 -3 1 -3 0 -3 3 -3 0 -3 3 -3 1 -3 
0 -3 1 -3 1 -3 1 -3 0 -3 1 -3 3 -3 2 -3 
1 -3 0 -7 2 -3 0 -6 1 -3 1 -3 0 -6 5 -3 
0 -3 1 -3 0 -9 1 -3 0 -6 1 -4 2 -3 1 -3 
0 -3 1 -3 1 -3 0 -3 1 -3 1 -3 0 -3 1 -3 
0 -15 1 -3 0 -10 926 1326 300 MP stroke
2 -3 2 -3 0 -3 2 -3 2 -3 0 -3 1 -3 1 -3 
1 -3 0 -9 2 -3 0 -3 1 -3 1 -3 1 -4 1 -3 
0 -6 1 -3 0 -12 1 -3 3 -3 0 -3 1 -3 0 -3 
1 -3 0 -3 1 -3 0 -7 1 -3 2 -3 2 -3 1 -3 
1 -3 0 -6 1 -3 0 -3 1 -6 1 -3 0 -6 1 -3 
1 -3 1 -4 0 -3 3 -3 0 -6 1 -3 0 -6 1 -3 
1 -3 0 -3 1 -3 0 -3 3 -3 0 -3 1 -3 1 -6 
0 -4 1 -6 1 -3 0 -12 1 -3 2 -3 0 -3 1 -3 
0 -12 1 -3 0 -10 1 -3 0 -6 1 -3 0 -6 1 -3 
1 -3 0 -3 1 -3 1 -3 0 -3 1 -3 0 -3 1 -3 
2 -3 1 -4 0 -9 1 -3 0 -3 1 -3 0 -15 1 -3 
3 -3 0 -16 2 -3 1 -3 1 -3 0 -21 2 -3 0 -12 
1 -3 1 -7 0 -3 1 -3 1 -3 1 -3 0 -3 2 -6 
0 -6 1 -3 0 -3 1 -3 0 -9 1 -3 0 -3 3 -4 
0 -6 2 -3 0 -6 1 -3 1 -6 2 -3 0 -15 1 -6 
0 -4 1 -3 0 -6 1 -3 0 -9 1 -6 1 -3 0 -9 
1 -3 0 -3 1 -3 0 -3 1 -4 0 -3 1 -3 0 -3 
2 -3 1 -3 0 -6 1 -6 0 -3 2 -3 1 -3 1 -6 
1 -3 2 -6 0 -49 3 -3 1 -7 2 -3 0 -3 1 -3 
0 -9 2 -3 0 -3 1 -3 1 -3 0 -6 1 -3 1 -3 
0 -3 1 -3 0 -3 1 -4 1 -3 1 -3 0 -30 3 -12 
1 -3 0 -10 2 -3 2 -3 0 -6 3 -3 4 -12 0 -52 
11 -40 0 -1073 764 3340 179 MP stroke
DD
/c10 { 1.000000 0.000000 1.000000 sr} bdef
c10
199 -3 201 -3 128 -3 47 -3 20 -3 20 -3 9 -3 1 -3 
46 -3 6 -3 0 -3 15 -6 48 -3 7 -3 15 -3 4 -3 
5 -4 41 -3 3 -3 0 -3 6 -3 0 -3 1 -3 3 -3 
12 -3 14 -3 5 -3 1 -3 10 -3 2 -3 10 -3 1 -3 
9 -3 3 -3 4 -4 4 -3 7 -3 3 -3 4 -3 1 -3 
6 -3 13 -3 0 -3 12 -3 6 -3 2 -3 3 -3 3 -6 
0 -6 1 -3 5 -4 2 -3 0 -3 1 -3 2 -3 2 -3 
0 -3 2 -3 1 -3 0 -3 1 -3 3 -3 2 -3 4 -3 
0 -3 1 -3 5 -3 4 -3 1 -4 10 -3 0 -3 5 -3 
2 -6 2 -3 0 -3 1 -3 2 -3 2 -3 5 -3 0 -3 
2 -3 7 -3 3 -3 0 -3 3 -3 3 -4 1 -6 0 -3 
3 -3 2 -3 0 -3 5 -3 2 -3 2 -3 2 -3 0 -9 
12 -3 2 -3 1 -3 1 -3 0 -4 1 -3 3 -3 0 -3 
4 -3 1 -3 0 -3 2 -3 3 -3 1 -3 6 -3 1 -3 
0 -3 1 -3 2 -3 0 -6 2 -3 3 -4 0 -3 4 -3 
0 -3 1 -3 1 -6 2 -3 0 -6 1 -3 2 -3 0 -3 
2 -3 0 -3 3 -3 0 -3 1 -4 0 -3 1 -3 1 -3 
0 -6 1 -3 0 -3 1 -3 3 -3 0 -3 1 -3 0 -3 
2 -3 2 -3 1 -3 0 -3 1 -3 2 -4 0 -3 1 -3 
1 -3 1 -3 0 -9 4 -3 1 -3 0 -15 1 -3 0 -3 
1 -3 0 -4 2 -3 2 -3 0 -6 1 -3 0 -3 1 -3 
1 -3 1 -3 1 -3 2 -3 0 -6 1 -3 1 -3 0 -3 
2 -3 1 -4 0 -6 1 -3 8 -3 1 -3 0 -9 2 -3 
0 -3 1 -3 0 -6 2 -3 1 -3 0 -10 1 -3 0 -6 
1 -3 0 -3 1 -3 0 -6 2 -3 0 -3 1 -3 1 -3 
0 -3 1 -3 0 -6 1 -3 2 -4 2 -3 0 -9 2 -3 
1 -3 3 -3 0 -3 1 -3 1 -3 1 -3 0 -6 1 -3 
0 -6 1 -3 0 -7 1 -3 0 -6 2 -3 1 -9 1 -3 
0 -3 1 -3 1 -3 1 -3 1 -3 0 -6 1 -4 2 -3 
0 -6 1 -3 0 -3 2 -3 0 -3 1 -3 0 -3 1 -3 
0 -15 1 -3 0 -10 1 -3 0 -9 2 -3 0 -6 1 -3 
0 -3 1 -3 0 -12 1 -3 1 -3 0 -7 1 -3 0 -12 
1 -3 0 -6 1 -3 0 -6 2 -3 1 -6 0 -6 1 -4 
0 -3 4 -3 0 -6 1 -3 0 -3 4 -3 0 -15 1 -3 
0 -9 1 -3 0 -13 2 -3 1 -3 1 -3 0 -6 1 -3 
0 -9 1 -3 1 -3 0 -16 2 -3 1 -3 0 -3 1 -3 
1 -3 0 -3 1 -3 0 -3 1 -3 0 -6 1 -3 0 -22 
2 -3 0 -6 1 -6 830 1454 300 MP stroke
0 -3 1 -3 0 -12 1 -3 0 -3 1 -3 0 -22 1 -6 
1 -3 2 -3 1 -3 0 -25 3 -3 0 -3 1 -12 0 -34 
1 -3 1 -3 0 -9 1 -3 0 -12 3 -3 0 -3 1 -6 
0 -6 1 -22 0 -9 3 -3 0 -15 1 -6 1 -3 0 -4 
1 -3 0 -6 3 -3 0 -15 1 -6 0 -18 2 -7 1 -3 
1 -3 0 -15 1 -3 1 -3 2 -3 0 -6 1 -3 1 -3 
0 -52 2 -13 1 -9 0 -6 1 -3 0 -21 1 -3 0 -3 
1 -3 0 -7 2 -3 3 -12 0 -18 4 -28 0 -52 11 -61 
9 -1234 13 -3 0 -4 742 3340 68 MP stroke
gr

c10
DD
0 sg
%%IncludeResource: font Helvetica
/Helvetica /WindowsLatin1Encoding 192 FMSR

2042 3737 mt 
(Entropy \(bits\)) s
 273 2010 mt  -90 rotate
(CDF) s
90 rotate
%%IncludeResource: font Helvetica
/Helvetica /WindowsLatin1Encoding 120 FMSR

 603 3419 mt 
( ) s
4514  362 mt 
( ) s
SO
%%IncludeResource: font Helvetica-Bold
/Helvetica-Bold /WindowsLatin1Encoding 144 FMSR

3223 2597 mt 
(Marginal) s
gs 2755 2425 1666 823 rc
c8
360 0 2827 2543 2 MP stroke
gr

c8
0 sg
3223 2792 mt 
(Conditional c = 2) s
gs 2755 2425 1666 823 rc
DA
c9
360 0 2827 2738 2 MP stroke
SO
gr

c9
0 sg
3223 2987 mt 
(Conditional c = 3) s
gs 2755 2425 1666 823 rc
360 0 2827 2933 2 MP stroke
gr

3223 3182 mt 
(Conditional c = 4) s
gs 2755 2425 1666 823 rc
DD
c10
360 0 2827 3128 2 MP stroke
SO
gr

c10

end %%Color Dict

eplot
%%EndObject

epage
end

showpage

%%Trailer
%%EOF
